{
    "blackList": [
        "200.102.171.210",
        "94.148.19.249",
        "185.177.194.1",
        "172.53.230.11",
        "172.53.230.11",
        "16.247.125.150"
    ],
    "whiteList": [
        "140.235.248.3"
    ]
}